Colours of the Taylor Swift Universe - 1 Surprise Song Outfits
…
## Need only consider first element of each concerts as the
## same outfit was worn for all surprise songs
## for anyone concert
oneRowPerConcert <- surpriseSongsDressColours %>%
    group_by(Date) %>%
    arrange(Date, Order) %>% 
    slice(1) %>%
    ungroup()
oneRowPerConcert

# A tibble: 147 × 26
   `Song title`         Mashups Mashup Mashup2 Guest City  State Country Stadium
   <chr>                <chr>   <chr>  <chr>   <chr> <chr> <chr> <chr>   <chr>  
 1 mirrorball           None    <NA>   <NA>    <NA>  Glen… Ariz… US      State …
 2 this is me trying    None    <NA>   <NA>    <NA>  Glen… Ariz… US      State …
 3 Our Song             None    <NA>   <NA>    <NA>  Las … Neva… US      Allegi…
 4 cowboy like me       None    <NA>   <NA>    Marc… Las … Neva… US      Allegi…
 5 Sad Beautiful Tragic None    <NA>   <NA>    <NA>  Arli… Texas US      AT&T   
 6 Death By A Thousand… None    <NA>   <NA>    <NA>  Arli… Texas US      AT&T   
 7 Speak Now            None    <NA>   <NA>    <NA>  Tampa Flor… US      Raymon…
 8 The Great War        None    <NA>   <NA>    Aaro… Tampa Flor… US      Raymon…
 9 mad woman            None    <NA>   <NA>    <NA>  Tampa Flor… US      Raymon…
10 Wonderland           None    <NA>   <NA>    <NA>  Hous… Texas US      NRG    
# ℹ 137 more rows
# ℹ 17 more variables: Date <date>, DressName <chr>, Legs <chr>,
#   Relationship <chr>, Start <dttm>, End <dttm>, Colour1 <chr>,
#   ColourHex1 <chr>, ColourRGB1 <chr>, Colour2 <chr>, ColourHex2 <chr>,
#   ColourRGB2 <chr>, `Night #` <dbl>, Order <dbl>, Instrument <chr>,
#   `Special Annoucement` <chr>, Notes <chr>
…
