Colours of the Taylor Swift Universe - 1 The data!
…
The rest of the world was black and white but we were in screaming colour (negative)

I searched aurora borealis green (positive)

It’s like your eyes are liquor, it’s like your body is gold (positive)

Therefore, the album_info_metadata_neutral.xlsx file is a slight improvement from the original lore with posivive and/or negative being replaced by neutral where it felt appropriated.

The sentiments were chosen from a list of feelings compiled by the Hoffman Institute Foundation (May/2015 review). Soon it was realized that a single sentiment was not enough to completely differentiate between songs and the message and keywords were also created to add more information to single out a song. For example, while Tim McGraw and Back to December both have the overall nostalgic feeling, the first carries a falling in love message, while the latter is about longing. Likewise, Tim McGraw keywords are romantic, first love, country music, while Back to December keywords are breakup, regretful, heartbreak.

allSongsMetadata <- readxl::read_excel("raw_data/album_info_metadata.xlsx")[,1:29]
allSongsMetadata 

# A tibble: 241 × 29
   album_name     ep    album_release       track_number track_name sentiment_MK
   <chr>          <lgl> <dttm>                     <dbl> <chr>      <chr>       
 1 evermore       FALSE 2020-12-11 00:00:00           13 marjorie   longing     
 2 Midnights      FALSE 2022-10-21 00:00:00            4 Snow On T… peaceful    
 3 Midnights      FALSE 2022-10-21 00:00:00           22 Snow On T… peaceful    
 4 THE TORTURED … FALSE 2024-04-19 00:00:00           17 The Black… sad         
 5 folklore       FALSE 2020-07-24 00:00:00            2 cardigan   melancholic 
 6 THE TORTURED … FALSE 2024-04-19 00:00:00           12 loml       sad         
 7 Lover          FALSE 2019-08-23 00:00:00           18 Daylight   hopeful     
 8 Speak Now (Ta… FALSE 2023-07-07 00:00:00           22 Timeless … nostalgic   
 9 1989 (Taylor'… FALSE 2023-10-27 00:00:00            4 Out Of Th… anxious     
10 reputation     FALSE 2017-11-10 00:00:00            5 Delicate   vulnerable  
# ℹ 231 more rows
# ℹ 23 more variables: message_MK <chr>, keywords_MK <chr>, Column1 <dbl>,
#   muse_MK <chr>, colour_lyric_MK <chr>, colour_meaningMK <chr>,
#   colour_MK <chr>, notes_MK <chr>, secret_message_MK <chr>, artist <chr>,
#   featuring <chr>, bonus_track <lgl>, promotional_release <dttm>,
#   single_release <dttm>, track_release <dttm>, danceability <dbl>,
#   energy <dbl>, key <dbl>, loudness <dbl>, mode <dbl>, speechiness <dbl>, …
…
1.2 Surprise Songs Data Set

Parallel to the development of the metadata (aka lore) database, a few details about each surprise song performance were noted down in the surprise_songs.xlsx data set. Each concert had a few rows, one per surprise song (Taylor performed two surprise songs in each of the concerts, the first one on the guitar and the second one on the piano). Besides the two regular surprise songs, she occasionally started mashing up songs in this acoustic set; although the first mashup happened in her second night in Ohio (July 1st, 2023), they became more common from the second night of her Melbourne concert (February 17th, 2024). Thus, three columns account for it: Mashups, with the options none, one or two; Mashup, with the name of the first song mashed up with Song title; and, Mashup2, with yet a third song that was mashed up with Song title and Mashup (in the case of Mashups = Two).

Besides the song titles and mashups, the surprise songs data set includes the names of the city, state, country, stadium and dates in which she performed. Moreover, the name of the dress she was wearing is included in the column DressName, and its colour in descriptive terms is found on Colour1, its HEX formatting on ColourHex1, and its RGB formatting on ColourRGB1. As some dresses like Flamingo pink and Sunset orange are made up of an ombre of two colours, their name and codes are also found on Colour2, ColourHex2 and ColourRGB2. Lastly, other details are also included: who she was dating at the time in the Relationship column; which leg of the tour (First legs, European, Final leg), which night on that city, which instrument she played while singing said song, special guests in the audience, and notes for overall remarks such as: on July 9th, she sang Last Kiss as one the surprise songs, and that date is mentioned on the song.

## reading in data
surpriseSongsDressColours <-  readxl::read_excel("raw_data/surprise_songs.xlsx", sheet = "List")
surpriseSongsDressColours$Date <- as.Date(surpriseSongsDressColours$Date)
surpriseSongsDressColours

# A tibble: 443 × 26
   `Song title`         Mashups Mashup Mashup2 Guest City  State Country Stadium
   <chr>                <chr>   <chr>  <chr>   <chr> <chr> <chr> <chr>   <chr>  
 1 mirrorball           None    <NA>   <NA>    <NA>  Glen… Ariz… US      State …
 2 Tim McGraw           None    <NA>   <NA>    <NA>  Glen… Ariz… US      State …
 3 State Of Grace       None    <NA>   <NA>    <NA>  Glen… Ariz… US      State …
 4 this is me trying    None    <NA>   <NA>    <NA>  Glen… Ariz… US      State …
 5 Our Song             None    <NA>   <NA>    <NA>  Las … Neva… US      Allegi…
 6 Snow On The Beach    None    <NA>   <NA>    <NA>  Las … Neva… US      Allegi…
 7 cowboy like me       None    <NA>   <NA>    Marc… Las … Neva… US      Allegi…
 8 White Horse          None    <NA>   <NA>    <NA>  Las … Neva… US      Allegi…
 9 Ours                 None    <NA>   <NA>    <NA>  Arli… Texas US      AT&T   
10 Sad Beautiful Tragic None    <NA>   <NA>    <NA>  Arli… Texas US      AT&T   
# ℹ 433 more rows
# ℹ 17 more variables: Date <date>, DressName <chr>, Legs <chr>,
#   Relationship <chr>, Start <dttm>, End <dttm>, Colour1 <chr>,
#   ColourHex1 <chr>, ColourRGB1 <chr>, Colour2 <chr>, ColourHex2 <chr>,
#   ColourRGB2 <chr>, `Night #` <dbl>, Order <dbl>, Instrument <chr>,
#   `Special Annoucement` <chr>, Notes <chr>

1.2.1 An overview of surprise song dresses across the whole tour

## Need only consider first element of each concerts as the
## same outfit was worn for all surprise songs
## for anyone concert
oneRowPerConcert <- surpriseSongsDressColours %>%
    group_by(Date) %>%
    arrange(Date, Order) %>% 
    slice(1) %>%
    ungroup()
oneRowPerConcert

# A tibble: 147 × 26
   `Song title`         Mashups Mashup Mashup2 Guest City  State Country Stadium
   <chr>                <chr>   <chr>  <chr>   <chr> <chr> <chr> <chr>   <chr>  
 1 mirrorball           None    <NA>   <NA>    <NA>  Glen… Ariz… US      State …
 2 this is me trying    None    <NA>   <NA>    <NA>  Glen… Ariz… US      State …
 3 Our Song             None    <NA>   <NA>    <NA>  Las … Neva… US      Allegi…
 4 cowboy like me       None    <NA>   <NA>    Marc… Las … Neva… US      Allegi…
 5 Sad Beautiful Tragic None    <NA>   <NA>    <NA>  Arli… Texas US      AT&T   
 6 Death By A Thousand… None    <NA>   <NA>    <NA>  Arli… Texas US      AT&T   
 7 Speak Now            None    <NA>   <NA>    <NA>  Tampa Flor… US      Raymon…
 8 The Great War        None    <NA>   <NA>    Aaro… Tampa Flor… US      Raymon…
 9 mad woman            None    <NA>   <NA>    <NA>  Tampa Flor… US      Raymon…
10 Wonderland           None    <NA>   <NA>    <NA>  Hous… Texas US      NRG    
# ℹ 137 more rows
# ℹ 17 more variables: Date <date>, DressName <chr>, Legs <chr>,
#   Relationship <chr>, Start <dttm>, End <dttm>, Colour1 <chr>,
#   ColourHex1 <chr>, ColourRGB1 <chr>, Colour2 <chr>, ColourHex2 <chr>,
#   ColourRGB2 <chr>, `Night #` <dbl>, Order <dbl>, Instrument <chr>,
#   `Special Annoucement` <chr>, Notes <chr>
